1;SOBOCE;"La Paz. Febrero. A partir de una invitaciOn efectuada por representantes de Radio Yungas, emisora lider del municipio de Chulumani, provincia Sud Yungas, del departamento de La Paz, el Decano de la Facultad de Diseno y Tecnologias Crossmedia, John Arandia, participo de un taller dirigido a periodistas y amantes del periodismo, en el que se tocaron diversos temas relacionados al area.

A partir del conocimiento adquirido durante su trayectoria como periodista, Arandia compartio con cerca de 100 de los periodistas mas importantes de la zona. Entre los temas tratados, se hablo sobre: preparacion profesional del periodista, etica y valores en periodismo, manejo de informacion en escenarios politicos; asimismo se discutieron criterios sobre la libertad de expresion, la presuncion de inocencia, la censura previa y las noticias falsas.

Los asistentes a la actividad fueron parte de un taller teorico-practico, en el que aprendieron mas sobre el armado de noticias en diferentes formatos y generos periodisticos para diversos medios.

A futuro se desarrollaran distintas capacitaciones que permitan a quienes son amantes de este oficio, generar las herramientas necesarias que aporten a escenarios de construccion de opinion poblica y manejo de informacion responsable. El proximo semestre esperamos contar con estudiantes de Sud Yungas sedientos de aprendizaje de competencias en el ambito periodistico.";soboce.jpg;1;soboce;1
2;MALDONADO EXPORTACIONES;"La Paz. Febrero. A partir de una invitaciOn efectuada por representantes de Radio Yungas, emisora lider del municipio de Chulumani, provincia Sud Yungas, del departamento de La Paz, el Decano de la Facultad de Diseno y Tecnologias Crossmedia, John Arandia, participo de un taller dirigido a periodistas y amantes del periodismo, en el que se tocaron diversos temas relacionados al area.

A partir del conocimiento adquirido durante su trayectoria como periodista, Arandia compartio con cerca de 100 de los periodistas mas importantes de la zona. Entre los temas tratados, se hablo sobre: preparacion profesional del periodista, etica y valores en periodismo, manejo de informacion en escenarios politicos; asimismo se discutieron criterios sobre la libertad de expresion, la presuncion de inocencia, la censura previa y las noticias falsas.

Los asistentes a la actividad fueron parte de un taller teorico-practico, en el que aprendieron mas sobre el armado de noticias en diferentes formatos y generos periodisticos para diversos medios.

A futuro se desarrollaran distintas capacitaciones que permitan a quienes son amantes de este oficio, generar las herramientas necesarias que aporten a escenarios de construccion de opinion poblica y manejo de informacion responsable. El proximo semestre esperamos contar con estudiantes de Sud Yungas sedientos de aprendizaje de competencias en el ambito periodistico.";maldonado.png;1;maldonado;1
3;GAMLP;"La Paz. Febrero. A partir de una invitaciOn efectuada por representantes de Radio Yungas, emisora lider del municipio de Chulumani, provincia Sud Yungas, del departamento de La Paz, el Decano de la Facultad de Diseno y Tecnologias Crossmedia, John Arandia, participo de un taller dirigido a periodistas y amantes del periodismo, en el que se tocaron diversos temas relacionados al area.

A partir del conocimiento adquirido durante su trayectoria como periodista, Arandia compartio con cerca de 100 de los periodistas mas importantes de la zona. Entre los temas tratados, se hablo sobre: preparacion profesional del periodista, etica y valores en periodismo, manejo de informacion en escenarios politicos; asimismo se discutieron criterios sobre la libertad de expresion, la presuncion de inocencia, la censura previa y las noticias falsas.

Los asistentes a la actividad fueron parte de un taller teorico-practico, en el que aprendieron mas sobre el armado de noticias en diferentes formatos y generos periodisticos para diversos medios.

A futuro se desarrollaran distintas capacitaciones que permitan a quienes son amantes de este oficio, generar las herramientas necesarias que aporten a escenarios de construccion de opinion poblica y manejo de informacion responsable. El proximo semestre esperamos contar con estudiantes de Sud Yungas sedientos de aprendizaje de competencias en el ambito periodistico.";gamlp.jpg;1;gamlp;1
4;ENDE SERVICIOS Y CONSTRUCCIONES;"La Paz. Febrero. A partir de una invitaciOn efectuada por representantes de Radio Yungas, emisora lider del municipio de Chulumani, provincia Sud Yungas, del departamento de La Paz, el Decano de la Facultad de Diseno y Tecnologias Crossmedia, John Arandia, participo de un taller dirigido a periodistas y amantes del periodismo, en el que se tocaron diversos temas relacionados al area.

A partir del conocimiento adquirido durante su trayectoria como periodista, Arandia compartio con cerca de 100 de los periodistas mas importantes de la zona. Entre los temas tratados, se hablo sobre: preparacion profesional del periodista, etica y valores en periodismo, manejo de informacion en escenarios politicos; asimismo se discutieron criterios sobre la libertad de expresion, la presuncion de inocencia, la censura previa y las noticias falsas.

Los asistentes a la actividad fueron parte de un taller teorico-practico, en el que aprendieron mas sobre el armado de noticias en diferentes formatos y generos periodisticos para diversos medios.

A futuro se desarrollaran distintas capacitaciones que permitan a quienes son amantes de este oficio, generar las herramientas necesarias que aporten a escenarios de construccion de opinion poblica y manejo de informacion responsable. El proximo semestre esperamos contar con estudiantes de Sud Yungas sedientos de aprendizaje de competencias en el ambito periodistico.";ende.png;1;ende;1
5;EPIROC;"La Paz. Febrero. A partir de una invitaciOn efectuada por representantes de Radio Yungas, emisora lider del municipio de Chulumani, provincia Sud Yungas, del departamento de La Paz, el Decano de la Facultad de Diseno y Tecnologias Crossmedia, John Arandia, participo de un taller dirigido a periodistas y amantes del periodismo, en el que se tocaron diversos temas relacionados al area.

A partir del conocimiento adquirido durante su trayectoria como periodista, Arandia compartio con cerca de 100 de los periodistas mas importantes de la zona. Entre los temas tratados, se hablo sobre: preparacion profesional del periodista, etica y valores en periodismo, manejo de informacion en escenarios politicos; asimismo se discutieron criterios sobre la libertad de expresion, la presuncion de inocencia, la censura previa y las noticias falsas.

Los asistentes a la actividad fueron parte de un taller teorico-practico, en el que aprendieron mas sobre el armado de noticias en diferentes formatos y generos periodisticos para diversos medios.

A futuro se desarrollaran distintas capacitaciones que permitan a quienes son amantes de este oficio, generar las herramientas necesarias que aporten a escenarios de construccion de opinion poblica y manejo de informacion responsable. El proximo semestre esperamos contar con estudiantes de Sud Yungas sedientos de aprendizaje de competencias en el ambito periodistico.";epiroc.jpg;1;epiroc;1
