1;MARCO ANTONIO SALAZAR MONTECINOS;MSC;<p>Lorem Ipsum es simplemente el texto de relleno de las imprentas y archivos de texto. Lorem Ipsum ha sido el texto de relleno estandar de las industrias desde el anio 1500, cuando un impresor N. del T. persona que se dedica a la imprenta desconocido uso una galeria de textos y los mezclo de tal manera que logro hacer un libro de textos especimen. No solo sobrevivio 500 anios, sino que tambien ingreso como texto de relleno en documentos electronicos, quedando esencialmente igual al original. Fue popularizado en los 60s con la creacion de las hojas Letraset, las cuales contenian pasajes de Lorem Ipsum, y mas recientemente con software de autoedicion, como por ejemplo Aldus PageMaker, el cual incluye versiones de Lorem Ipsum.</p>;1;1;marco;0
2;CARMEN MAMANI;LIC;<p>Lorem Ipsum es simplemente el texto de relleno de las imprentas y archivos de texto. Lorem Ipsum ha sido el texto de relleno estandar de las industrias desde el anio 1500, cuando un impresor N. del T. persona que se dedica a la imprenta desconocido uso una galeria de textos y los mezclo de tal manera que logro hacer un libro de textos especimen. No solo sobrevivio 500 anios, sino que tambien ingreso como texto de relleno en documentos electronicos, quedando esencialmente igual al original. Fue popularizado en los 60s con la creacion de las hojas Letraset, las cuales contenian pasajes de Lorem Ipsum, y mas recientemente con software de autoedicion, como por ejemplo Aldus PageMaker, el cual incluye versiones de Lorem Ipsum.</p>;1;1;carmen;0
3;ROLANDO QUISPE;DOCTOR;<p>Lorem Ipsum es simplemente el texto de relleno de las imprentas y archivos de texto. Lorem Ipsum ha sido el texto de relleno estandar de las industrias desde el anio 1500, cuando un impresor N. del T. persona que se dedica a la imprenta desconocido uso una galeria de textos y los mezclo de tal manera que logro hacer un libro de textos especimen. No solo sobrevivio 500 anios, sino que tambien ingreso como texto de relleno en documentos electronicos, quedando esencialmente igual al original. Fue popularizado en los 60s con la creacion de las hojas Letraset, las cuales contenian pasajes de Lorem Ipsum, y mas recientemente con software de autoedicion, como por ejemplo Aldus PageMaker, el cual incluye versiones de Lorem Ipsum.</p>;1;1;rolando;1
