UADMIN;UNIDAD DE ASUNTOS ADMINISTRATIVOS;1
UTMT;UNIDAD TECNICA DE MEDICINA DEL TRABAJO;1
UTSHIMA;UNIDAD TECNICA DE HIGIENE SEGURIDAD INDUSTRIAL Y MEDIO AMBIENTE;1
INSO;INSTITUTO NACIONAL DE SALUD OCUPACIONAL;1